Homework-03
…
## See spec(...) for full column specifications.

d

## # A tibble: 213 x 44
##    Scientific_Name Family Genus Species Brain_Size_Spec Brain_Size_Fema
##    <chr>           <chr>  <chr> <chr>              <dbl>            <dbl>
##  1 Allenopithecus Cerco Alle nigrov             58.0             53.7
##  2 Allocebus_tric Cerco Allo tricho             NA               NA  
##  3 Alouatta_belze Ateli Alou belzeb             52.8             51.2
##  4 Alouatta_caraya Ateli Alou caraya              52.6             47.8
##  5 Alouatta_guari Ateli Alou guariba             51.7             49.1
##  6 Alouatta_palli Ateli Alou pallia             49.9             48.0
##  7 Alouatta_pigra  Ateli Alou pigra               51.1             48.8
##  8 Alouatta_senic Ateli Alou senicu             55.2             54.3
##  9 Aotus_azarai    Cebid Aotus azarai              20.7             20.7
## 10 Aotus_brumbacki Cebid Aotus brumba             NA               NA  
## #  with 203 more rows, and 38 more variables: Brain_size_Ref <chr>,
## #   Body_mass_male_mean <dbl>, Body_mass_female_mean <dbl>,
## #   Mass_Dimorphism <dbl>, Mass_Ref <chr>, MeanGroupSize <dbl>,
## #   AdultMales <dbl>, AdultFemale <dbl>, AdultSexRatio <dbl>,
## #   Social_Organization_Ref <chr>, InterbirthInterval_d <dbl>,
## #   Gestation <dbl>, WeaningAge_d <dbl>, MaxLongevity_m <dbl>,
## #   LitterSz <dbl>, Life_History_Ref <chr>, GR_MidRangeLat_dd <dbl>,
## #   Precip_Mean_mm <dbl>, Temp_Mean_degC <dbl>, AET_Mean_mm <dbl>,
## #   PET_Mean_mm <dbl>, Climate_Ref <chr>, HomeRange_km2 <dbl>,
…
